…
And replace the path above with your own path that points to the calepa-cn folder. Everything is relative to this one main path.

### Debugging the pipeline
In order to check the pipeline is engineered properly, run the following command:

```
tar_manifest(fields=command)
```

The output should look something like:
```
# A tibble: 90 × 2
   name          command                                                                                                             
   <chr>         <chr>                                                                                                               
 1 ei_crude      "5.698"                                                                                                             
 2 ei_diesel     "5.77"                                                                                                              
 3 ei_gasoline   "5.052"                                                                                                             
 4 ei_jet        "(5.67 + 5.355)/2"                                                                                                  
 5 clus          "c(\"North\", \"South\")"                                                                                           
 6 main_path     "\"/Volumes/GoogleDrive-103159311076289514198/.shortcut-targets-by-id/139aDqzs5T2c-DtdKyLw7S5iJ9rqveGaP/calepa-cn\""
 7 pred_years    "2020:2045"                                                                                                         
 8 ref_threshold "0.6"                                                                                                               
 9 drop_in_perc  "1"                                                                                                                 
10 ref_scens     "c(\"historic exports\", \"historic production\", \"low exports\")"                                                 
# … with 80 more rows
# ℹ Use `print(n = ...)` to see more rows
```
…
